%!PS-Adobe-2.0 EPSF-2.0
%%Title: E:\AGH\pite\filters\docs\UML.dia
%%Creator: Dia v0.97.2
%%CreationDate: Wed Feb 25 13:59:00 2015
%%For: Maciek
%%Orientation: Portrait
%%Magnification: 1.0000
%%BoundingBox: 0 0 592 399
%%BeginSetup
%%EndSetup
%%EndComments
%%BeginProlog
[ /.notdef /.notdef /.notdef /.notdef /.notdef /.notdef /.notdef /.notdef /.notdef /.notdef
/.notdef /.notdef /.notdef /.notdef /.notdef /.notdef /.notdef /.notdef /.notdef /.notdef
/.notdef /.notdef /.notdef /.notdef /.notdef /.notdef /.notdef /.notdef /.notdef /.notdef
/.notdef /.notdef /space /exclam /quotedbl /numbersign /dollar /percent /ampersand /quoteright
/parenleft /parenright /asterisk /plus /comma /hyphen /period /slash /zero /one
/two /three /four /five /six /seven /eight /nine /colon /semicolon
/less /equal /greater /question /at /A /B /C /D /E
/F /G /H /I /J /K /L /M /N /O
/P /Q /R /S /T /U /V /W /X /Y
/Z /bracketleft /backslash /bracketright /asciicircum /underscore /quoteleft /a /b /c
/d /e /f /g /h /i /j /k /l /m
/n /o /p /q /r /s /t /u /v /w
/x /y /z /braceleft /bar /braceright /asciitilde /.notdef /.notdef /.notdef
/.notdef /.notdef /.notdef /.notdef /.notdef /.notdef /.notdef /.notdef /.notdef /.notdef
/.notdef /.notdef /.notdef /.notdef /.notdef /.notdef /.notdef /.notdef /.notdef /.notdef
/.notdef /.notdef /.notdef /.notdef /.notdef /.notdef /.notdef /.notdef /.notdef /.notdef
/space /exclamdown /cent /sterling /currency /yen /brokenbar /section /dieresis /copyright
/ordfeminine /guillemotleft /logicalnot /hyphen /registered /macron /degree /plusminus /twosuperior /threesuperior
/acute /mu /paragraph /periodcentered /cedilla /onesuperior /ordmasculine /guillemotright /onequarter /onehalf
/threequarters /questiondown /Agrave /Aacute /Acircumflex /Atilde /Adieresis /Aring /AE /Ccedilla
/Egrave /Eacute /Ecircumflex /Edieresis /Igrave /Iacute /Icircumflex /Idieresis /Eth /Ntilde
/Ograve /Oacute /Ocircumflex /Otilde /Odieresis /multiply /Oslash /Ugrave /Uacute /Ucircumflex
/Udieresis /Yacute /Thorn /germandbls /agrave /aacute /acircumflex /atilde /adieresis /aring
/ae /ccedilla /egrave /eacute /ecircumflex /edieresis /igrave /iacute /icircumflex /idieresis
/eth /ntilde /ograve /oacute /ocircumflex /otilde /odieresis /divide /oslash /ugrave
/uacute /ucircumflex /udieresis /yacute /thorn /ydieresis] /isolatin1encoding exch def
/cp {closepath} bind def
/c {curveto} bind def
/f {fill} bind def
/a {arc} bind def
/ef {eofill} bind def
/ex {exch} bind def
/gr {grestore} bind def
/gs {gsave} bind def
/sa {save} bind def
/rs {restore} bind def
/l {lineto} bind def
/m {moveto} bind def
/rm {rmoveto} bind def
/n {newpath} bind def
/s {stroke} bind def
/sh {show} bind def
/slc {setlinecap} bind def
/slj {setlinejoin} bind def
/slw {setlinewidth} bind def
/srgb {setrgbcolor} bind def
/rot {rotate} bind def
/sc {scale} bind def
/sd {setdash} bind def
/ff {findfont} bind def
/sf {setfont} bind def
/scf {scalefont} bind def
/sw {stringwidth pop} bind def
/tr {translate} bind def

/ellipsedict 8 dict def
ellipsedict /mtrx matrix put
/ellipse
{ ellipsedict begin
   /endangle exch def
   /startangle exch def
   /yrad exch def
   /xrad exch def
   /y exch def
   /x exch def   /savematrix mtrx currentmatrix def
   x y tr xrad yrad sc
   0 0 1 startangle endangle arc
   savematrix setmatrix
   end
} def

/mergeprocs {
dup length
3 -1 roll
dup
length
dup
5 1 roll
3 -1 roll
add
array cvx
dup
3 -1 roll
0 exch
putinterval
dup
4 2 roll
putinterval
} bind def
/Times-Roman-latin1
    /Times-Roman findfont
    dup length dict begin
	{1 index /FID ne {def} {pop pop} ifelse} forall
	/Encoding isolatin1encoding def
    currentdict end
definefont pop
/Times-Italic-latin1
    /Times-Italic findfont
    dup length dict begin
	{1 index /FID ne {def} {pop pop} ifelse} forall
	/Encoding isolatin1encoding def
    currentdict end
definefont pop
/Times-Bold-latin1
    /Times-Bold findfont
    dup length dict begin
	{1 index /FID ne {def} {pop pop} ifelse} forall
	/Encoding isolatin1encoding def
    currentdict end
definefont pop
/Times-BoldItalic-latin1
    /Times-BoldItalic findfont
    dup length dict begin
	{1 index /FID ne {def} {pop pop} ifelse} forall
	/Encoding isolatin1encoding def
    currentdict end
definefont pop
/AvantGarde-Gothic-latin1
    /AvantGarde-Gothic findfont
    dup length dict begin
	{1 index /FID ne {def} {pop pop} ifelse} forall
	/Encoding isolatin1encoding def
    currentdict end
definefont pop
/AvantGarde-BookOblique-latin1
    /AvantGarde-BookOblique findfont
    dup length dict begin
	{1 index /FID ne {def} {pop pop} ifelse} forall
	/Encoding isolatin1encoding def
    currentdict end
definefont pop
/AvantGarde-Demi-latin1
    /AvantGarde-Demi findfont
    dup length dict begin
	{1 index /FID ne {def} {pop pop} ifelse} forall
	/Encoding isolatin1encoding def
    currentdict end
definefont pop
/AvantGarde-DemiOblique-latin1
    /AvantGarde-DemiOblique findfont
    dup length dict begin
	{1 index /FID ne {def} {pop pop} ifelse} forall
	/Encoding isolatin1encoding def
    currentdict end
definefont pop
/Bookman-Light-latin1
    /Bookman-Light findfont
    dup length dict begin
	{1 index /FID ne {def} {pop pop} ifelse} forall
	/Encoding isolatin1encoding def
    currentdict end
definefont pop
/Bookman-LightItalic-latin1
    /Bookman-LightItalic findfont
    dup length dict begin
	{1 index /FID ne {def} {pop pop} ifelse} forall
	/Encoding isolatin1encoding def
    currentdict end
definefont pop
/Bookman-Demi-latin1
    /Bookman-Demi findfont
    dup length dict begin
	{1 index /FID ne {def} {pop pop} ifelse} forall
	/Encoding isolatin1encoding def
    currentdict end
definefont pop
/Bookman-DemiItalic-latin1
    /Bookman-DemiItalic findfont
    dup length dict begin
	{1 index /FID ne {def} {pop pop} ifelse} forall
	/Encoding isolatin1encoding def
    currentdict end
definefont pop
/Courier-latin1
    /Courier findfont
    dup length dict begin
	{1 index /FID ne {def} {pop pop} ifelse} forall
	/Encoding isolatin1encoding def
    currentdict end
definefont pop
/Courier-Oblique-latin1
    /Courier-Oblique findfont
    dup length dict begin
	{1 index /FID ne {def} {pop pop} ifelse} forall
	/Encoding isolatin1encoding def
    currentdict end
definefont pop
/Courier-Bold-latin1
    /Courier-Bold findfont
    dup length dict begin
	{1 index /FID ne {def} {pop pop} ifelse} forall
	/Encoding isolatin1encoding def
    currentdict end
definefont pop
/Courier-BoldOblique-latin1
    /Courier-BoldOblique findfont
    dup length dict begin
	{1 index /FID ne {def} {pop pop} ifelse} forall
	/Encoding isolatin1encoding def
    currentdict end
definefont pop
/Helvetica-latin1
    /Helvetica findfont
    dup length dict begin
	{1 index /FID ne {def} {pop pop} ifelse} forall
	/Encoding isolatin1encoding def
    currentdict end
definefont pop
/Helvetica-Oblique-latin1
    /Helvetica-Oblique findfont
    dup length dict begin
	{1 index /FID ne {def} {pop pop} ifelse} forall
	/Encoding isolatin1encoding def
    currentdict end
definefont pop
/Helvetica-Bold-latin1
    /Helvetica-Bold findfont
    dup length dict begin
	{1 index /FID ne {def} {pop pop} ifelse} forall
	/Encoding isolatin1encoding def
    currentdict end
definefont pop
/Helvetica-BoldOblique-latin1
    /Helvetica-BoldOblique findfont
    dup length dict begin
	{1 index /FID ne {def} {pop pop} ifelse} forall
	/Encoding isolatin1encoding def
    currentdict end
definefont pop
/Helvetica-Narrow-latin1
    /Helvetica-Narrow findfont
    dup length dict begin
	{1 index /FID ne {def} {pop pop} ifelse} forall
	/Encoding isolatin1encoding def
    currentdict end
definefont pop
/Helvetica-Narrow-Oblique-latin1
    /Helvetica-Narrow-Oblique findfont
    dup length dict begin
	{1 index /FID ne {def} {pop pop} ifelse} forall
	/Encoding isolatin1encoding def
    currentdict end
definefont pop
/Helvetica-Narrow-Bold-latin1
    /Helvetica-Narrow-Bold findfont
    dup length dict begin
	{1 index /FID ne {def} {pop pop} ifelse} forall
	/Encoding isolatin1encoding def
    currentdict end
definefont pop
/Helvetica-Narrow-BoldOblique-latin1
    /Helvetica-Narrow-BoldOblique findfont
    dup length dict begin
	{1 index /FID ne {def} {pop pop} ifelse} forall
	/Encoding isolatin1encoding def
    currentdict end
definefont pop
/NewCenturySchlbk-Roman-latin1
    /NewCenturySchlbk-Roman findfont
    dup length dict begin
	{1 index /FID ne {def} {pop pop} ifelse} forall
	/Encoding isolatin1encoding def
    currentdict end
definefont pop
/NewCenturySchlbk-Italic-latin1
    /NewCenturySchlbk-Italic findfont
    dup length dict begin
	{1 index /FID ne {def} {pop pop} ifelse} forall
	/Encoding isolatin1encoding def
    currentdict end
definefont pop
/NewCenturySchlbk-Bold-latin1
    /NewCenturySchlbk-Bold findfont
    dup length dict begin
	{1 index /FID ne {def} {pop pop} ifelse} forall
	/Encoding isolatin1encoding def
    currentdict end
definefont pop
/NewCenturySchlbk-BoldItalic-latin1
    /NewCenturySchlbk-BoldItalic findfont
    dup length dict begin
	{1 index /FID ne {def} {pop pop} ifelse} forall
	/Encoding isolatin1encoding def
    currentdict end
definefont pop
/Palatino-Roman-latin1
    /Palatino-Roman findfont
    dup length dict begin
	{1 index /FID ne {def} {pop pop} ifelse} forall
	/Encoding isolatin1encoding def
    currentdict end
definefont pop
/Palatino-Italic-latin1
    /Palatino-Italic findfont
    dup length dict begin
	{1 index /FID ne {def} {pop pop} ifelse} forall
	/Encoding isolatin1encoding def
    currentdict end
definefont pop
/Palatino-Bold-latin1
    /Palatino-Bold findfont
    dup length dict begin
	{1 index /FID ne {def} {pop pop} ifelse} forall
	/Encoding isolatin1encoding def
    currentdict end
definefont pop
/Palatino-BoldItalic-latin1
    /Palatino-BoldItalic findfont
    dup length dict begin
	{1 index /FID ne {def} {pop pop} ifelse} forall
	/Encoding isolatin1encoding def
    currentdict end
definefont pop
/Symbol-latin1
    /Symbol findfont
definefont pop
/ZapfChancery-MediumItalic-latin1
    /ZapfChancery-MediumItalic findfont
    dup length dict begin
	{1 index /FID ne {def} {pop pop} ifelse} forall
	/Encoding isolatin1encoding def
    currentdict end
definefont pop
/ZapfDingbats-latin1
    /ZapfDingbats findfont
    dup length dict begin
	{1 index /FID ne {def} {pop pop} ifelse} forall
	/Encoding isolatin1encoding def
    currentdict end
definefont pop
28.346000 -28.346000 scale
-25.575000 -14.225000 translate
%%EndProlog


0.050000 slw
[] 0 sd
1.000000 1.000000 1.000000 srgb
n 33.000000 2.885630 m 33.000000 3.885630 l 38.487500 3.885630 l 38.487500 2.885630 l f
0.000000 0.000000 0.000000 srgb
n 33.000000 2.885630 m 33.000000 3.885630 l 38.487500 3.885630 l 38.487500 2.885630 l cp s
/Helvetica-Bold-latin1 ff 0.420000 scf sf
(MainGUIController) dup sw 2 div 35.743750 ex sub 3.415630 m
 gs 1 -1 sc sh gr
1.000000 1.000000 1.000000 srgb
n 33.000000 3.885630 m 33.000000 4.285630 l 38.487500 4.285630 l 38.487500 3.885630 l f
0.000000 0.000000 0.000000 srgb
n 33.000000 3.885630 m 33.000000 4.285630 l 38.487500 4.285630 l 38.487500 3.885630 l cp s
1.000000 1.000000 1.000000 srgb
n 33.000000 4.285630 m 33.000000 4.685630 l 38.487500 4.685630 l 38.487500 4.285630 l f
0.000000 0.000000 0.000000 srgb
n 33.000000 4.285630 m 33.000000 4.685630 l 38.487500 4.685630 l 38.487500 4.285630 l cp s
0.050000 slw
[] 0 sd
1.000000 1.000000 1.000000 srgb
n 34.200000 0.200000 m 34.200000 1.000000 l 37.277500 1.000000 l 37.277500 0.200000 l f
0.000000 0.000000 0.000000 srgb
n 34.200000 0.200000 m 34.200000 1.000000 l 37.277500 1.000000 l 37.277500 0.200000 l cp s
/Helvetica-Bold-latin1 ff 0.280000 scf sf
(QMainWindow) dup sw 2 div 35.738750 ex sub 0.620000 m
 gs 1 -1 sc sh gr
1.000000 1.000000 1.000000 srgb
n 34.200000 1.000000 m 34.200000 1.400000 l 37.277500 1.400000 l 37.277500 1.000000 l f
0.000000 0.000000 0.000000 srgb
n 34.200000 1.000000 m 34.200000 1.400000 l 37.277500 1.400000 l 37.277500 1.000000 l cp s
1.000000 1.000000 1.000000 srgb
n 34.200000 1.400000 m 34.200000 1.800000 l 37.277500 1.800000 l 37.277500 1.400000 l f
0.000000 0.000000 0.000000 srgb
n 34.200000 1.400000 m 34.200000 1.800000 l 37.277500 1.800000 l 37.277500 1.400000 l cp s
0.050000 slw
[] 0 sd
1.000000 1.000000 1.000000 srgb
n 28.800000 3.000000 m 28.800000 3.800000 l 30.560000 3.800000 l 30.560000 3.000000 l f
0.000000 0.000000 0.000000 srgb
n 28.800000 3.000000 m 28.800000 3.800000 l 30.560000 3.800000 l 30.560000 3.000000 l cp s
/Helvetica-Bold-latin1 ff 0.280000 scf sf
(Logger) dup sw 2 div 29.680000 ex sub 3.420000 m
 gs 1 -1 sc sh gr
1.000000 1.000000 1.000000 srgb
n 28.800000 3.800000 m 28.800000 4.200000 l 30.560000 4.200000 l 30.560000 3.800000 l f
0.000000 0.000000 0.000000 srgb
n 28.800000 3.800000 m 28.800000 4.200000 l 30.560000 4.200000 l 30.560000 3.800000 l cp s
1.000000 1.000000 1.000000 srgb
n 28.800000 4.200000 m 28.800000 4.600000 l 30.560000 4.600000 l 30.560000 4.200000 l f
0.000000 0.000000 0.000000 srgb
n 28.800000 4.200000 m 28.800000 4.600000 l 30.560000 4.600000 l 30.560000 4.200000 l cp s
0.050000 slw
[0.200000] 0 sd
[0.200000] 0 sd
0 slc
n 33.000000 3.385630 m 30.671801 3.399342 l s
0.050000 slw
[] 0 sd
0 slj
0 slc
n 31.114420 3.146730 m 30.615901 3.399671 l 31.117364 3.646722 l s
0.050000 slw
[] 0 sd
1.000000 1.000000 1.000000 srgb
n 27.200000 0.800000 m 27.200000 1.600000 l 30.535000 1.600000 l 30.535000 0.800000 l f
0.000000 0.000000 0.000000 srgb
n 27.200000 0.800000 m 27.200000 1.600000 l 30.535000 1.600000 l 30.535000 0.800000 l cp s
/Helvetica-Bold-latin1 ff 0.280000 scf sf
(Ui_MainWindow) dup sw 2 div 28.867500 ex sub 1.220000 m
 gs 1 -1 sc sh gr
1.000000 1.000000 1.000000 srgb
n 27.200000 1.600000 m 27.200000 2.000000 l 30.535000 2.000000 l 30.535000 1.600000 l f
0.000000 0.000000 0.000000 srgb
n 27.200000 1.600000 m 27.200000 2.000000 l 30.535000 2.000000 l 30.535000 1.600000 l cp s
1.000000 1.000000 1.000000 srgb
n 27.200000 2.000000 m 27.200000 2.400000 l 30.535000 2.400000 l 30.535000 2.000000 l f
0.000000 0.000000 0.000000 srgb
n 27.200000 2.000000 m 27.200000 2.400000 l 30.535000 2.400000 l 30.535000 2.000000 l cp s
0.050000 slw
[0.200000] 0 sd
[0.200000] 0 sd
0 slc
n 33.000000 3.385630 m 30.618655 1.274174 l s
0.050000 slw
[] 0 sd
0 slj
0 slc
n 31.116804 1.381745 m 30.576828 1.237087 l 30.785087 1.755863 l s
0.050000 slw
[] 0 sd
1.000000 1.000000 1.000000 srgb
n 42.800000 3.000000 m 42.800000 3.800000 l 46.422500 3.800000 l 46.422500 3.000000 l f
0.000000 0.000000 0.000000 srgb
n 42.800000 3.000000 m 42.800000 3.800000 l 46.422500 3.800000 l 46.422500 3.000000 l cp s
/Helvetica-Bold-latin1 ff 0.280000 scf sf
(AmplitudeThread) dup sw 2 div 44.611250 ex sub 3.420000 m
 gs 1 -1 sc sh gr
1.000000 1.000000 1.000000 srgb
n 42.800000 3.800000 m 42.800000 4.200000 l 46.422500 4.200000 l 46.422500 3.800000 l f
0.000000 0.000000 0.000000 srgb
n 42.800000 3.800000 m 42.800000 4.200000 l 46.422500 4.200000 l 46.422500 3.800000 l cp s
1.000000 1.000000 1.000000 srgb
n 42.800000 4.200000 m 42.800000 4.600000 l 46.422500 4.600000 l 46.422500 4.200000 l f
0.000000 0.000000 0.000000 srgb
n 42.800000 4.200000 m 42.800000 4.600000 l 46.422500 4.600000 l 46.422500 4.200000 l cp s
0.050000 slw
[] 0 sd
1.000000 1.000000 1.000000 srgb
n 38.800000 6.600000 m 38.800000 7.400000 l 42.257500 7.400000 l 42.257500 6.600000 l f
0.000000 0.000000 0.000000 srgb
n 38.800000 6.600000 m 38.800000 7.400000 l 42.257500 7.400000 l 42.257500 6.600000 l cp s
/Helvetica-Bold-latin1 ff 0.280000 scf sf
(SnapshotThread) dup sw 2 div 40.528750 ex sub 7.020000 m
 gs 1 -1 sc sh gr
1.000000 1.000000 1.000000 srgb
n 38.800000 7.400000 m 38.800000 7.800000 l 42.257500 7.800000 l 42.257500 7.400000 l f
0.000000 0.000000 0.000000 srgb
n 38.800000 7.400000 m 38.800000 7.800000 l 42.257500 7.800000 l 42.257500 7.400000 l cp s
1.000000 1.000000 1.000000 srgb
n 38.800000 7.800000 m 38.800000 8.200000 l 42.257500 8.200000 l 42.257500 7.800000 l f
0.000000 0.000000 0.000000 srgb
n 38.800000 7.800000 m 38.800000 8.200000 l 42.257500 8.200000 l 42.257500 7.800000 l cp s
0.050000 slw
[0.200000] 0 sd
[0.200000] 0 sd
0 slc
n 38.487500 3.385630 m 42.688197 3.399627 l s
0.050000 slw
[] 0 sd
0 slj
0 slc
n 42.243268 3.648146 m 42.744099 3.399814 l 42.244934 3.148149 l s
0.050000 slw
[0.200000] 0 sd
[0.200000] 0 sd
0 slc
n 35.743700 4.685630 m 38.710868 6.932505 l s
0.050000 slw
[] 0 sd
0 slj
0 slc
n 38.205902 6.863712 m 38.755434 6.966253 l 38.507747 6.465103 l s
0.050000 slw
[] 0 sd
[] 0 sd
0 slc
n 35.743700 2.885630 m 35.741309 2.355896 l s
0 slj
1.000000 1.000000 1.000000 srgb
n 35.991306 2.354768 m 35.739052 1.855901 l 35.491312 2.357024 l ef
0.050000 slw
[] 0 sd
0 slj
0.000000 0.000000 0.000000 srgb
n 35.991306 2.354768 m 35.739052 1.855901 l 35.491312 2.357024 l cp s
0.050000 slw
[] 0 sd
1.000000 1.000000 1.000000 srgb
n 43.585600 7.600000 m 43.585600 8.400000 l 45.623100 8.400000 l 45.623100 7.600000 l f
0.000000 0.000000 0.000000 srgb
n 43.585600 7.600000 m 43.585600 8.400000 l 45.623100 8.400000 l 45.623100 7.600000 l cp s
/Helvetica-Bold-latin1 ff 0.280000 scf sf
(QThread) dup sw 2 div 44.604350 ex sub 8.020000 m
 gs 1 -1 sc sh gr
1.000000 1.000000 1.000000 srgb
n 43.585600 8.400000 m 43.585600 8.800000 l 45.623100 8.800000 l 45.623100 8.400000 l f
0.000000 0.000000 0.000000 srgb
n 43.585600 8.400000 m 43.585600 8.800000 l 45.623100 8.800000 l 45.623100 8.400000 l cp s
1.000000 1.000000 1.000000 srgb
n 43.585600 8.800000 m 43.585600 9.200000 l 45.623100 9.200000 l 45.623100 8.800000 l f
0.000000 0.000000 0.000000 srgb
n 43.585600 8.800000 m 43.585600 9.200000 l 45.623100 9.200000 l 45.623100 8.800000 l cp s
0.050000 slw
[] 0 sd
[] 0 sd
0 slc
n 44.611300 4.600000 m 44.605679 7.044100 l s
0 slj
1.000000 1.000000 1.000000 srgb
n 44.355679 7.043525 m 44.604529 7.544098 l 44.855678 7.044675 l ef
0.050000 slw
[] 0 sd
0 slj
0.000000 0.000000 0.000000 srgb
n 44.355679 7.043525 m 44.604529 7.544098 l 44.855678 7.044675 l cp s
0.050000 slw
[] 0 sd
[] 0 sd
0 slc
n 42.257500 7.000000 m 43.141509 7.665620 l s
0 slj
1.000000 1.000000 1.000000 srgb
n 42.991132 7.865336 m 43.540942 7.966375 l 43.291887 7.465903 l ef
0.050000 slw
[] 0 sd
0 slj
0.000000 0.000000 0.000000 srgb
n 42.991132 7.865336 m 43.540942 7.966375 l 43.291887 7.465903 l cp s
0.050000 slw
[] 0 sd
1.000000 1.000000 1.000000 srgb
n 32.600000 6.000000 m 32.600000 6.800000 l 34.262500 6.800000 l 34.262500 6.000000 l f
0.000000 0.000000 0.000000 srgb
n 32.600000 6.000000 m 32.600000 6.800000 l 34.262500 6.800000 l 34.262500 6.000000 l cp s
/Helvetica-Bold-latin1 ff 0.280000 scf sf
(Config) dup sw 2 div 33.431250 ex sub 6.420000 m
 gs 1 -1 sc sh gr
1.000000 1.000000 1.000000 srgb
n 32.600000 6.800000 m 32.600000 7.200000 l 34.262500 7.200000 l 34.262500 6.800000 l f
0.000000 0.000000 0.000000 srgb
n 32.600000 6.800000 m 32.600000 7.200000 l 34.262500 7.200000 l 34.262500 6.800000 l cp s
1.000000 1.000000 1.000000 srgb
n 32.600000 7.200000 m 32.600000 7.600000 l 34.262500 7.600000 l 34.262500 7.200000 l f
0.000000 0.000000 0.000000 srgb
n 32.600000 7.200000 m 32.600000 7.600000 l 34.262500 7.600000 l 34.262500 7.200000 l cp s
0.050000 slw
[] 0 sd
1.000000 1.000000 1.000000 srgb
n 39.400000 4.258470 m 39.400000 5.058470 l 41.735000 5.058470 l 41.735000 4.258470 l f
0.000000 0.000000 0.000000 srgb
n 39.400000 4.258470 m 39.400000 5.058470 l 41.735000 5.058470 l 41.735000 4.258470 l cp s
/Helvetica-Bold-latin1 ff 0.280000 scf sf
(SimConfig) dup sw 2 div 40.567500 ex sub 4.678470 m
 gs 1 -1 sc sh gr
1.000000 1.000000 1.000000 srgb
n 39.400000 5.058470 m 39.400000 5.458470 l 41.735000 5.458470 l 41.735000 5.058470 l f
0.000000 0.000000 0.000000 srgb
n 39.400000 5.058470 m 39.400000 5.458470 l 41.735000 5.458470 l 41.735000 5.058470 l cp s
1.000000 1.000000 1.000000 srgb
n 39.400000 5.458470 m 39.400000 5.858470 l 41.735000 5.858470 l 41.735000 5.458470 l f
0.000000 0.000000 0.000000 srgb
n 39.400000 5.458470 m 39.400000 5.858470 l 41.735000 5.858470 l 41.735000 5.458470 l cp s
0.050000 slw
[0.200000] 0 sd
[0.200000] 0 sd
0 slc
n 35.743700 4.685630 m 34.346126 5.925793 l s
0.050000 slw
[] 0 sd
0 slj
0 slc
n 34.512368 5.444039 m 34.304313 5.962896 l 34.844232 5.818026 l s
0.050000 slw
[0.200000] 0 sd
[0.200000] 0 sd
0 slc
n 38.487500 4.685630 m 39.288246 4.661796 l s
0.050000 slw
[] 0 sd
0 slj
0 slc
n 38.851782 4.924898 m 39.344123 4.660133 l 38.836907 4.425119 l s
0.050000 slw
[] 0 sd
1.000000 1.000000 1.000000 srgb
n 43.439000 0.200000 m 43.439000 1.000000 l 45.759000 1.000000 l 45.759000 0.200000 l f
0.000000 0.000000 0.000000 srgb
n 43.439000 0.200000 m 43.439000 1.000000 l 45.759000 1.000000 l 45.759000 0.200000 l cp s
/Helvetica-Bold-latin1 ff 0.280000 scf sf
(BodePlots) dup sw 2 div 44.599000 ex sub 0.620000 m
 gs 1 -1 sc sh gr
1.000000 1.000000 1.000000 srgb
n 43.439000 1.000000 m 43.439000 1.400000 l 45.759000 1.400000 l 45.759000 1.000000 l f
0.000000 0.000000 0.000000 srgb
n 43.439000 1.000000 m 43.439000 1.400000 l 45.759000 1.400000 l 45.759000 1.000000 l cp s
1.000000 1.000000 1.000000 srgb
n 43.439000 1.400000 m 43.439000 1.800000 l 45.759000 1.800000 l 45.759000 1.400000 l f
0.000000 0.000000 0.000000 srgb
n 43.439000 1.400000 m 43.439000 1.800000 l 45.759000 1.800000 l 45.759000 1.400000 l cp s
0.050000 slw
[0.200000] 0 sd
[0.200000] 0 sd
0 slc
n 44.611300 3.000000 m 44.600146 1.911798 l s
0.050000 slw
[] 0 sd
0 slj
0 slc
n 44.854685 2.353310 m 44.599573 1.855899 l 44.354711 2.358435 l s
0.050000 slw
[0.200000] 0 sd
[0.200000] 0 sd
0 slc
n 42.800000 3.400000 m 41.807224 4.573126 l s
0.050000 slw
[] 0 sd
0 slj
0 slc
n 41.903272 4.072628 m 41.771112 4.615798 l 42.284944 4.395624 l s
0.050000 slw
[0.200000] 0 sd
[0.200000] 0 sd
0 slc
n 40.528800 6.600000 m 40.561673 5.970121 l s
0.050000 slw
[] 0 sd
0 slj
0 slc
n 40.788187 6.426646 m 40.564586 5.914296 l 40.288867 6.400587 l s
0.050000 slw
[] 0 sd
1.000000 1.000000 1.000000 srgb
n 25.600000 6.000000 m 25.600000 6.800000 l 30.380000 6.800000 l 30.380000 6.000000 l f
0.000000 0.000000 0.000000 srgb
n 25.600000 6.000000 m 25.600000 6.800000 l 30.380000 6.800000 l 30.380000 6.000000 l cp s
/Helvetica-Bold-latin1 ff 0.280000 scf sf
(MeasurementController) dup sw 2 div 27.990000 ex sub 6.420000 m
 gs 1 -1 sc sh gr
1.000000 1.000000 1.000000 srgb
n 25.600000 6.800000 m 25.600000 7.200000 l 30.380000 7.200000 l 30.380000 6.800000 l f
0.000000 0.000000 0.000000 srgb
n 25.600000 6.800000 m 25.600000 7.200000 l 30.380000 7.200000 l 30.380000 6.800000 l cp s
1.000000 1.000000 1.000000 srgb
n 25.600000 7.200000 m 25.600000 7.600000 l 30.380000 7.600000 l 30.380000 7.200000 l f
0.000000 0.000000 0.000000 srgb
n 25.600000 7.200000 m 25.600000 7.600000 l 30.380000 7.600000 l 30.380000 7.200000 l cp s
0.050000 slw
[0.200000] 0 sd
[0.200000] 0 sd
0 slc
n 32.600000 6.400000 m 30.491803 6.400000 l s
0.050000 slw
[] 0 sd
0 slj
0 slc
n 30.935902 6.150000 m 30.435902 6.400000 l 30.935902 6.650000 l s
0.050000 slw
[] 0 sd
1.000000 1.000000 1.000000 srgb
n 28.200000 9.000000 m 28.200000 9.800000 l 30.950000 9.800000 l 30.950000 9.000000 l f
0.000000 0.000000 0.000000 srgb
n 28.200000 9.000000 m 28.200000 9.800000 l 30.950000 9.800000 l 30.950000 9.000000 l cp s
/Helvetica-Bold-latin1 ff 0.280000 scf sf
(Oscilloscope) dup sw 2 div 29.575000 ex sub 9.420000 m
 gs 1 -1 sc sh gr
1.000000 1.000000 1.000000 srgb
n 28.200000 9.800000 m 28.200000 10.200000 l 30.950000 10.200000 l 30.950000 9.800000 l f
0.000000 0.000000 0.000000 srgb
n 28.200000 9.800000 m 28.200000 10.200000 l 30.950000 10.200000 l 30.950000 9.800000 l cp s
1.000000 1.000000 1.000000 srgb
n 28.200000 10.200000 m 28.200000 10.600000 l 30.950000 10.600000 l 30.950000 10.200000 l f
0.000000 0.000000 0.000000 srgb
n 28.200000 10.200000 m 28.200000 10.600000 l 30.950000 10.600000 l 30.950000 10.200000 l cp s
0.050000 slw
[] 0 sd
1.000000 1.000000 1.000000 srgb
n 32.278000 9.000000 m 32.278000 9.800000 l 34.605500 9.800000 l 34.605500 9.000000 l f
0.000000 0.000000 0.000000 srgb
n 32.278000 9.000000 m 32.278000 9.800000 l 34.605500 9.800000 l 34.605500 9.000000 l cp s
/Helvetica-Bold-latin1 ff 0.280000 scf sf
(Generator) dup sw 2 div 33.441750 ex sub 9.420000 m
 gs 1 -1 sc sh gr
1.000000 1.000000 1.000000 srgb
n 32.278000 9.800000 m 32.278000 10.200000 l 34.605500 10.200000 l 34.605500 9.800000 l f
0.000000 0.000000 0.000000 srgb
n 32.278000 9.800000 m 32.278000 10.200000 l 34.605500 10.200000 l 34.605500 9.800000 l cp s
1.000000 1.000000 1.000000 srgb
n 32.278000 10.200000 m 32.278000 10.600000 l 34.605500 10.600000 l 34.605500 10.200000 l f
0.000000 0.000000 0.000000 srgb
n 32.278000 10.200000 m 32.278000 10.600000 l 34.605500 10.600000 l 34.605500 10.200000 l cp s
0.050000 slw
[0.200000] 0 sd
[0.200000] 0 sd
0 slc
n 27.990000 7.600000 m 29.491204 8.925985 l s
0.050000 slw
[] 0 sd
0 slj
0 slc
n 28.992853 8.819359 m 29.533102 8.962992 l 29.323859 8.444613 l s
0.050000 slw
[0.200000] 0 sd
[0.200000] 0 sd
0 slc
n 32.600000 7.600000 m 31.035251 8.927666 l s
0.050000 slw
[] 0 sd
0 slj
0 slc
n 31.212136 8.449717 m 30.992626 8.963833 l 31.535624 8.830971 l s
0.050000 slw
[0.200000] 0 sd
[0.200000] 0 sd
0 slc
n 33.431200 7.600000 m 33.440861 8.888200 l s
0.050000 slw
[] 0 sd
0 slj
0 slc
n 33.187538 8.445989 m 33.441281 8.944100 l 33.687524 8.442239 l s
0.050000 slw
[] 0 sd
1.000000 1.000000 1.000000 srgb
n 30.400000 12.600000 m 30.400000 13.400000 l 32.905000 13.400000 l 32.905000 12.600000 l f
0.000000 0.000000 0.000000 srgb
n 30.400000 12.600000 m 30.400000 13.400000 l 32.905000 13.400000 l 32.905000 12.600000 l cp s
/Helvetica-Bold-latin1 ff 0.280000 scf sf
(Instrument) dup sw 2 div 31.652500 ex sub 13.020000 m
 gs 1 -1 sc sh gr
1.000000 1.000000 1.000000 srgb
n 30.400000 13.400000 m 30.400000 13.800000 l 32.905000 13.800000 l 32.905000 13.400000 l f
0.000000 0.000000 0.000000 srgb
n 30.400000 13.400000 m 30.400000 13.800000 l 32.905000 13.800000 l 32.905000 13.400000 l cp s
1.000000 1.000000 1.000000 srgb
n 30.400000 13.800000 m 30.400000 14.200000 l 32.905000 14.200000 l 32.905000 13.800000 l f
0.000000 0.000000 0.000000 srgb
n 30.400000 13.800000 m 30.400000 14.200000 l 32.905000 14.200000 l 32.905000 13.800000 l cp s
0.050000 slw
[] 0 sd
[] 0 sd
0 slc
n 33.441700 10.600000 m 32.023141 12.185691 l s
0 slj
1.000000 1.000000 1.000000 srgb
n 31.836818 12.019006 m 31.689772 12.558337 l 32.209464 12.352375 l ef
0.050000 slw
[] 0 sd
0 slj
0.000000 0.000000 0.000000 srgb
n 31.836818 12.019006 m 31.689772 12.558337 l 32.209464 12.352375 l cp s
0.050000 slw
[] 0 sd
[] 0 sd
0 slc
n 29.575000 10.600000 m 31.252019 12.214459 l s
0 slj
1.000000 1.000000 1.000000 srgb
n 31.078634 12.394563 m 31.612227 12.561230 l 31.425405 12.034355 l ef
0.050000 slw
[] 0 sd
0 slj
0.000000 0.000000 0.000000 srgb
n 31.078634 12.394563 m 31.612227 12.561230 l 31.425405 12.034355 l cp s
0.050000 slw
[0.200000] 0 sd
[0.200000] 0 sd
0 slc
n 30.380000 7.600000 m 32.188025 8.933633 l s
0.050000 slw
[] 0 sd
0 slj
0 slc
n 31.682233 8.871204 m 32.233013 8.966817 l 31.979035 8.468825 l s
0.050000 slw
[] 0 sd
1.000000 1.000000 1.000000 srgb
n 39.400000 9.400000 m 39.400000 10.200000 l 41.632500 10.200000 l 41.632500 9.400000 l f
0.000000 0.000000 0.000000 srgb
n 39.400000 9.400000 m 39.400000 10.200000 l 41.632500 10.200000 l 41.632500 9.400000 l cp s
/Helvetica-Bold-latin1 ff 0.280000 scf sf
(SnapShot) dup sw 2 div 40.516250 ex sub 9.820000 m
 gs 1 -1 sc sh gr
1.000000 1.000000 1.000000 srgb
n 39.400000 10.200000 m 39.400000 10.600000 l 41.632500 10.600000 l 41.632500 10.200000 l f
0.000000 0.000000 0.000000 srgb
n 39.400000 10.200000 m 39.400000 10.600000 l 41.632500 10.600000 l 41.632500 10.200000 l cp s
1.000000 1.000000 1.000000 srgb
n 39.400000 10.600000 m 39.400000 11.000000 l 41.632500 11.000000 l 41.632500 10.600000 l f
0.000000 0.000000 0.000000 srgb
n 39.400000 10.600000 m 39.400000 11.000000 l 41.632500 11.000000 l 41.632500 10.600000 l cp s
0.050000 slw
[0.200000] 0 sd
[0.200000] 0 sd
0 slc
n 40.528800 8.200000 m 40.517465 9.288203 l s
0.050000 slw
[] 0 sd
0 slj
0 slc
n 40.272104 8.841524 m 40.516882 9.344101 l 40.772077 8.846732 l s
0.050000 slw
[0.200000] 0 sd
[0.200000] 0 sd
0 slj
0 slc
n 39.400000 11.000000 m 37.800000 11.400000 l 31.800000 11.400000 l 31.031415 10.676626 l s
0.050000 slw
[] 0 sd
0 slj
0 slc
n 31.526149 10.798945 m 30.990708 10.638313 l 31.183466 11.163045 l s
0.050000 slw
[0.200000] 0 sd
[0.200000] 0 sd
0 slj
0 slc
n 44.611300 4.600000 m 42.200000 8.600000 l 38.600000 8.600000 l 34.371446 7.625117 l s
0.050000 slw
[] 0 sd
0 slj
0 slc
n 34.860356 7.481276 m 34.316973 7.612559 l 34.748028 7.968495 l s
0.050000 slw
[0.200000] 0 sd
[0.200000] 0 sd
0 slc
n 38.800000 7.000000 m 34.373339 6.414656 l s
0.050000 slw
[] 0 sd
0 slj
0 slc
n 34.846377 6.225031 m 34.317919 6.407328 l 34.780832 6.720716 l s
showpage
