%!PS-Adobe-2.0 EPSF-2.0
%%Title: E:\AGH\pite\filters\docs\UML_mc.dia
%%Creator: Dia v0.97.2
%%CreationDate: Wed Feb 25 13:57:13 2015
%%For: Maciek
%%Orientation: Portrait
%%Magnification: 1.0000
%%BoundingBox: 0 0 335 342
%%BeginSetup
%%EndSetup
%%EndComments
%%BeginProlog
[ /.notdef /.notdef /.notdef /.notdef /.notdef /.notdef /.notdef /.notdef /.notdef /.notdef
/.notdef /.notdef /.notdef /.notdef /.notdef /.notdef /.notdef /.notdef /.notdef /.notdef
/.notdef /.notdef /.notdef /.notdef /.notdef /.notdef /.notdef /.notdef /.notdef /.notdef
/.notdef /.notdef /space /exclam /quotedbl /numbersign /dollar /percent /ampersand /quoteright
/parenleft /parenright /asterisk /plus /comma /hyphen /period /slash /zero /one
/two /three /four /five /six /seven /eight /nine /colon /semicolon
/less /equal /greater /question /at /A /B /C /D /E
/F /G /H /I /J /K /L /M /N /O
/P /Q /R /S /T /U /V /W /X /Y
/Z /bracketleft /backslash /bracketright /asciicircum /underscore /quoteleft /a /b /c
/d /e /f /g /h /i /j /k /l /m
/n /o /p /q /r /s /t /u /v /w
/x /y /z /braceleft /bar /braceright /asciitilde /.notdef /.notdef /.notdef
/.notdef /.notdef /.notdef /.notdef /.notdef /.notdef /.notdef /.notdef /.notdef /.notdef
/.notdef /.notdef /.notdef /.notdef /.notdef /.notdef /.notdef /.notdef /.notdef /.notdef
/.notdef /.notdef /.notdef /.notdef /.notdef /.notdef /.notdef /.notdef /.notdef /.notdef
/space /exclamdown /cent /sterling /currency /yen /brokenbar /section /dieresis /copyright
/ordfeminine /guillemotleft /logicalnot /hyphen /registered /macron /degree /plusminus /twosuperior /threesuperior
/acute /mu /paragraph /periodcentered /cedilla /onesuperior /ordmasculine /guillemotright /onequarter /onehalf
/threequarters /questiondown /Agrave /Aacute /Acircumflex /Atilde /Adieresis /Aring /AE /Ccedilla
/Egrave /Eacute /Ecircumflex /Edieresis /Igrave /Iacute /Icircumflex /Idieresis /Eth /Ntilde
/Ograve /Oacute /Ocircumflex /Otilde /Odieresis /multiply /Oslash /Ugrave /Uacute /Ucircumflex
/Udieresis /Yacute /Thorn /germandbls /agrave /aacute /acircumflex /atilde /adieresis /aring
/ae /ccedilla /egrave /eacute /ecircumflex /edieresis /igrave /iacute /icircumflex /idieresis
/eth /ntilde /ograve /oacute /ocircumflex /otilde /odieresis /divide /oslash /ugrave
/uacute /ucircumflex /udieresis /yacute /thorn /ydieresis] /isolatin1encoding exch def
/cp {closepath} bind def
/c {curveto} bind def
/f {fill} bind def
/a {arc} bind def
/ef {eofill} bind def
/ex {exch} bind def
/gr {grestore} bind def
/gs {gsave} bind def
/sa {save} bind def
/rs {restore} bind def
/l {lineto} bind def
/m {moveto} bind def
/rm {rmoveto} bind def
/n {newpath} bind def
/s {stroke} bind def
/sh {show} bind def
/slc {setlinecap} bind def
/slj {setlinejoin} bind def
/slw {setlinewidth} bind def
/srgb {setrgbcolor} bind def
/rot {rotate} bind def
/sc {scale} bind def
/sd {setdash} bind def
/ff {findfont} bind def
/sf {setfont} bind def
/scf {scalefont} bind def
/sw {stringwidth pop} bind def
/tr {translate} bind def

/ellipsedict 8 dict def
ellipsedict /mtrx matrix put
/ellipse
{ ellipsedict begin
   /endangle exch def
   /startangle exch def
   /yrad exch def
   /xrad exch def
   /y exch def
   /x exch def   /savematrix mtrx currentmatrix def
   x y tr xrad yrad sc
   0 0 1 startangle endangle arc
   savematrix setmatrix
   end
} def

/mergeprocs {
dup length
3 -1 roll
dup
length
dup
5 1 roll
3 -1 roll
add
array cvx
dup
3 -1 roll
0 exch
putinterval
dup
4 2 roll
putinterval
} bind def
/Times-Roman-latin1
    /Times-Roman findfont
    dup length dict begin
	{1 index /FID ne {def} {pop pop} ifelse} forall
	/Encoding isolatin1encoding def
    currentdict end
definefont pop
/Times-Italic-latin1
    /Times-Italic findfont
    dup length dict begin
	{1 index /FID ne {def} {pop pop} ifelse} forall
	/Encoding isolatin1encoding def
    currentdict end
definefont pop
/Times-Bold-latin1
    /Times-Bold findfont
    dup length dict begin
	{1 index /FID ne {def} {pop pop} ifelse} forall
	/Encoding isolatin1encoding def
    currentdict end
definefont pop
/Times-BoldItalic-latin1
    /Times-BoldItalic findfont
    dup length dict begin
	{1 index /FID ne {def} {pop pop} ifelse} forall
	/Encoding isolatin1encoding def
    currentdict end
definefont pop
/AvantGarde-Gothic-latin1
    /AvantGarde-Gothic findfont
    dup length dict begin
	{1 index /FID ne {def} {pop pop} ifelse} forall
	/Encoding isolatin1encoding def
    currentdict end
definefont pop
/AvantGarde-BookOblique-latin1
    /AvantGarde-BookOblique findfont
    dup length dict begin
	{1 index /FID ne {def} {pop pop} ifelse} forall
	/Encoding isolatin1encoding def
    currentdict end
definefont pop
/AvantGarde-Demi-latin1
    /AvantGarde-Demi findfont
    dup length dict begin
	{1 index /FID ne {def} {pop pop} ifelse} forall
	/Encoding isolatin1encoding def
    currentdict end
definefont pop
/AvantGarde-DemiOblique-latin1
    /AvantGarde-DemiOblique findfont
    dup length dict begin
	{1 index /FID ne {def} {pop pop} ifelse} forall
	/Encoding isolatin1encoding def
    currentdict end
definefont pop
/Bookman-Light-latin1
    /Bookman-Light findfont
    dup length dict begin
	{1 index /FID ne {def} {pop pop} ifelse} forall
	/Encoding isolatin1encoding def
    currentdict end
definefont pop
/Bookman-LightItalic-latin1
    /Bookman-LightItalic findfont
    dup length dict begin
	{1 index /FID ne {def} {pop pop} ifelse} forall
	/Encoding isolatin1encoding def
    currentdict end
definefont pop
/Bookman-Demi-latin1
    /Bookman-Demi findfont
    dup length dict begin
	{1 index /FID ne {def} {pop pop} ifelse} forall
	/Encoding isolatin1encoding def
    currentdict end
definefont pop
/Bookman-DemiItalic-latin1
    /Bookman-DemiItalic findfont
    dup length dict begin
	{1 index /FID ne {def} {pop pop} ifelse} forall
	/Encoding isolatin1encoding def
    currentdict end
definefont pop
/Courier-latin1
    /Courier findfont
    dup length dict begin
	{1 index /FID ne {def} {pop pop} ifelse} forall
	/Encoding isolatin1encoding def
    currentdict end
definefont pop
/Courier-Oblique-latin1
    /Courier-Oblique findfont
    dup length dict begin
	{1 index /FID ne {def} {pop pop} ifelse} forall
	/Encoding isolatin1encoding def
    currentdict end
definefont pop
/Courier-Bold-latin1
    /Courier-Bold findfont
    dup length dict begin
	{1 index /FID ne {def} {pop pop} ifelse} forall
	/Encoding isolatin1encoding def
    currentdict end
definefont pop
/Courier-BoldOblique-latin1
    /Courier-BoldOblique findfont
    dup length dict begin
	{1 index /FID ne {def} {pop pop} ifelse} forall
	/Encoding isolatin1encoding def
    currentdict end
definefont pop
/Helvetica-latin1
    /Helvetica findfont
    dup length dict begin
	{1 index /FID ne {def} {pop pop} ifelse} forall
	/Encoding isolatin1encoding def
    currentdict end
definefont pop
/Helvetica-Oblique-latin1
    /Helvetica-Oblique findfont
    dup length dict begin
	{1 index /FID ne {def} {pop pop} ifelse} forall
	/Encoding isolatin1encoding def
    currentdict end
definefont pop
/Helvetica-Bold-latin1
    /Helvetica-Bold findfont
    dup length dict begin
	{1 index /FID ne {def} {pop pop} ifelse} forall
	/Encoding isolatin1encoding def
    currentdict end
definefont pop
/Helvetica-BoldOblique-latin1
    /Helvetica-BoldOblique findfont
    dup length dict begin
	{1 index /FID ne {def} {pop pop} ifelse} forall
	/Encoding isolatin1encoding def
    currentdict end
definefont pop
/Helvetica-Narrow-latin1
    /Helvetica-Narrow findfont
    dup length dict begin
	{1 index /FID ne {def} {pop pop} ifelse} forall
	/Encoding isolatin1encoding def
    currentdict end
definefont pop
/Helvetica-Narrow-Oblique-latin1
    /Helvetica-Narrow-Oblique findfont
    dup length dict begin
	{1 index /FID ne {def} {pop pop} ifelse} forall
	/Encoding isolatin1encoding def
    currentdict end
definefont pop
/Helvetica-Narrow-Bold-latin1
    /Helvetica-Narrow-Bold findfont
    dup length dict begin
	{1 index /FID ne {def} {pop pop} ifelse} forall
	/Encoding isolatin1encoding def
    currentdict end
definefont pop
/Helvetica-Narrow-BoldOblique-latin1
    /Helvetica-Narrow-BoldOblique findfont
    dup length dict begin
	{1 index /FID ne {def} {pop pop} ifelse} forall
	/Encoding isolatin1encoding def
    currentdict end
definefont pop
/NewCenturySchlbk-Roman-latin1
    /NewCenturySchlbk-Roman findfont
    dup length dict begin
	{1 index /FID ne {def} {pop pop} ifelse} forall
	/Encoding isolatin1encoding def
    currentdict end
definefont pop
/NewCenturySchlbk-Italic-latin1
    /NewCenturySchlbk-Italic findfont
    dup length dict begin
	{1 index /FID ne {def} {pop pop} ifelse} forall
	/Encoding isolatin1encoding def
    currentdict end
definefont pop
/NewCenturySchlbk-Bold-latin1
    /NewCenturySchlbk-Bold findfont
    dup length dict begin
	{1 index /FID ne {def} {pop pop} ifelse} forall
	/Encoding isolatin1encoding def
    currentdict end
definefont pop
/NewCenturySchlbk-BoldItalic-latin1
    /NewCenturySchlbk-BoldItalic findfont
    dup length dict begin
	{1 index /FID ne {def} {pop pop} ifelse} forall
	/Encoding isolatin1encoding def
    currentdict end
definefont pop
/Palatino-Roman-latin1
    /Palatino-Roman findfont
    dup length dict begin
	{1 index /FID ne {def} {pop pop} ifelse} forall
	/Encoding isolatin1encoding def
    currentdict end
definefont pop
/Palatino-Italic-latin1
    /Palatino-Italic findfont
    dup length dict begin
	{1 index /FID ne {def} {pop pop} ifelse} forall
	/Encoding isolatin1encoding def
    currentdict end
definefont pop
/Palatino-Bold-latin1
    /Palatino-Bold findfont
    dup length dict begin
	{1 index /FID ne {def} {pop pop} ifelse} forall
	/Encoding isolatin1encoding def
    currentdict end
definefont pop
/Palatino-BoldItalic-latin1
    /Palatino-BoldItalic findfont
    dup length dict begin
	{1 index /FID ne {def} {pop pop} ifelse} forall
	/Encoding isolatin1encoding def
    currentdict end
definefont pop
/Symbol-latin1
    /Symbol findfont
definefont pop
/ZapfChancery-MediumItalic-latin1
    /ZapfChancery-MediumItalic findfont
    dup length dict begin
	{1 index /FID ne {def} {pop pop} ifelse} forall
	/Encoding isolatin1encoding def
    currentdict end
definefont pop
/ZapfDingbats-latin1
    /ZapfDingbats findfont
    dup length dict begin
	{1 index /FID ne {def} {pop pop} ifelse} forall
	/Encoding isolatin1encoding def
    currentdict end
definefont pop
28.346000 -28.346000 scale
-30.575000 -13.425000 translate
%%EndProlog


0.050000 slw
[] 0 sd
1.000000 1.000000 1.000000 srgb
n 32.200000 1.400000 m 32.200000 2.600000 l 41.267500 2.600000 l 41.267500 1.400000 l f
0.000000 0.000000 0.000000 srgb
n 32.200000 1.400000 m 32.200000 2.600000 l 41.267500 2.600000 l 41.267500 1.400000 l cp s
/Helvetica-Bold-latin1 ff 0.560000 scf sf
(MeasurementController) dup sw 2 div 36.733750 ex sub 2.040000 m
 gs 1 -1 sc sh gr
1.000000 1.000000 1.000000 srgb
n 32.200000 2.600000 m 32.200000 3.000000 l 41.267500 3.000000 l 41.267500 2.600000 l f
0.000000 0.000000 0.000000 srgb
n 32.200000 2.600000 m 32.200000 3.000000 l 41.267500 3.000000 l 41.267500 2.600000 l cp s
1.000000 1.000000 1.000000 srgb
n 32.200000 3.000000 m 32.200000 3.400000 l 41.267500 3.400000 l 41.267500 3.000000 l f
0.000000 0.000000 0.000000 srgb
n 32.200000 3.000000 m 32.200000 3.400000 l 41.267500 3.400000 l 41.267500 3.000000 l cp s
0.050000 slw
[] 0 sd
1.000000 1.000000 1.000000 srgb
n 30.600000 6.400000 m 30.600000 7.600000 l 35.597500 7.600000 l 35.597500 6.400000 l f
0.000000 0.000000 0.000000 srgb
n 30.600000 6.400000 m 30.600000 7.600000 l 35.597500 7.600000 l 35.597500 6.400000 l cp s
/Helvetica-Bold-latin1 ff 0.560000 scf sf
(Oscilloscope) dup sw 2 div 33.098750 ex sub 7.040000 m
 gs 1 -1 sc sh gr
1.000000 1.000000 1.000000 srgb
n 30.600000 7.600000 m 30.600000 8.000000 l 35.597500 8.000000 l 35.597500 7.600000 l f
0.000000 0.000000 0.000000 srgb
n 30.600000 7.600000 m 30.600000 8.000000 l 35.597500 8.000000 l 35.597500 7.600000 l cp s
1.000000 1.000000 1.000000 srgb
n 30.600000 8.000000 m 30.600000 8.400000 l 35.597500 8.400000 l 35.597500 8.000000 l f
0.000000 0.000000 0.000000 srgb
n 30.600000 8.000000 m 30.600000 8.400000 l 35.597500 8.400000 l 35.597500 8.000000 l cp s
0.050000 slw
[] 0 sd
1.000000 1.000000 1.000000 srgb
n 38.200000 6.400000 m 38.200000 7.600000 l 42.357500 7.600000 l 42.357500 6.400000 l f
0.000000 0.000000 0.000000 srgb
n 38.200000 6.400000 m 38.200000 7.600000 l 42.357500 7.600000 l 42.357500 6.400000 l cp s
/Helvetica-Bold-latin1 ff 0.560000 scf sf
(Generator) dup sw 2 div 40.278750 ex sub 7.040000 m
 gs 1 -1 sc sh gr
1.000000 1.000000 1.000000 srgb
n 38.200000 7.600000 m 38.200000 8.000000 l 42.357500 8.000000 l 42.357500 7.600000 l f
0.000000 0.000000 0.000000 srgb
n 38.200000 7.600000 m 38.200000 8.000000 l 42.357500 8.000000 l 42.357500 7.600000 l cp s
1.000000 1.000000 1.000000 srgb
n 38.200000 8.000000 m 38.200000 8.400000 l 42.357500 8.400000 l 42.357500 8.000000 l f
0.000000 0.000000 0.000000 srgb
n 38.200000 8.000000 m 38.200000 8.400000 l 42.357500 8.400000 l 42.357500 8.000000 l cp s
0.050000 slw
[0.200000] 0 sd
[0.200000] 0 sd
0 slc
n 36.733750 3.400000 m 33.184979 6.328834 l s
0.050000 slw
[] 0 sd
0 slj
0 slc
n 33.368361 5.853341 m 33.141865 6.364417 l 33.686624 6.238969 l s
0.050000 slw
[] 0 sd
1.000000 1.000000 1.000000 srgb
n 34.600000 11.400000 m 34.600000 12.600000 l 39.110000 12.600000 l 39.110000 11.400000 l f
0.000000 0.000000 0.000000 srgb
n 34.600000 11.400000 m 34.600000 12.600000 l 39.110000 12.600000 l 39.110000 11.400000 l cp s
/Helvetica-Bold-latin1 ff 0.560000 scf sf
(Instrument) dup sw 2 div 36.855000 ex sub 12.040000 m
 gs 1 -1 sc sh gr
1.000000 1.000000 1.000000 srgb
n 34.600000 12.600000 m 34.600000 13.000000 l 39.110000 13.000000 l 39.110000 12.600000 l f
0.000000 0.000000 0.000000 srgb
n 34.600000 12.600000 m 34.600000 13.000000 l 39.110000 13.000000 l 39.110000 12.600000 l cp s
1.000000 1.000000 1.000000 srgb
n 34.600000 13.000000 m 34.600000 13.400000 l 39.110000 13.400000 l 39.110000 13.000000 l f
0.000000 0.000000 0.000000 srgb
n 34.600000 13.000000 m 34.600000 13.400000 l 39.110000 13.400000 l 39.110000 13.000000 l cp s
0.050000 slw
[] 0 sd
[] 0 sd
0 slc
n 40.278750 8.400000 m 37.273103 11.033644 l s
0 slj
1.000000 1.000000 1.000000 srgb
n 37.108346 10.845615 m 36.897045 11.363159 l 37.437861 11.221674 l ef
0.050000 slw
[] 0 sd
0 slj
0.000000 0.000000 0.000000 srgb
n 37.108346 10.845615 m 36.897045 11.363159 l 37.437861 11.221674 l cp s
0.050000 slw
[] 0 sd
[] 0 sd
0 slc
n 33.098750 8.400000 m 36.420632 11.053084 l s
0 slj
1.000000 1.000000 1.000000 srgb
n 36.264617 11.248428 m 36.811320 11.365114 l 36.576647 10.857740 l ef
0.050000 slw
[] 0 sd
0 slj
0.000000 0.000000 0.000000 srgb
n 36.264617 11.248428 m 36.811320 11.365114 l 36.576647 10.857740 l cp s
0.050000 slw
[0.200000] 0 sd
[0.200000] 0 sd
0 slc
n 36.733750 3.400000 m 40.193405 6.327776 l s
0.050000 slw
[] 0 sd
0 slj
0 slc
n 39.692907 6.231729 m 40.236078 6.363888 l 40.015903 5.850056 l s
showpage
